{
  "project_info": {
    "project_number": "333432402454",
    "firebase_url": "https://around-us-prod.firebaseio.com",
    "project_id": "around-us-prod",
    "storage_bucket": "around-us-prod.appspot.com"
  },
  "client": [
    {
      "client_info": {
        "mobilesdk_app_id": "1:333432402454:android:62aebad0dca629edf47b37",
        "android_client_info": {
          "package_name": "com.aroundUs.tmmin"
        }
      },
      "oauth_client": [
        {
          "client_id": "333432402454-ikb2qjbto5u8sgep7scmbf9ub1r08r36.apps.googleusercontent.com",
          "client_type": 3
        }
      ],
      "api_key": [
        {
          "current_key": "AIzaSyBjTyxdbICrMCIXuhdwXlo0FiMlC-8BMJ8"
        }
      ],
      "services": {
        "appinvite_service": {
          "other_platform_oauth_client": [
            {
              "client_id": "333432402454-ikb2qjbto5u8sgep7scmbf9ub1r08r36.apps.googleusercontent.com",
              "client_type": 3
            }
          ]
        }
      }
    }
  ],
  "configuration_version": "1"
}